﻿
                            //if (parms[0].Equals("SURVEY") && parms[1].Length > 1)
                            //{
                            //    var survey = new List<Survey>(_survey.GetByColumnName("SurveyKeyword", parms[1]));

                            //    if (survey != null && survey.Count == 1)
                            //    {
                            //        if (survey[0].Status != SurveyStatus_vi_VN.Kích_hoạt)
                            //        {
                            //            result = WebConfigurationManager.AppSettings["SurveyDeleted"];
                            //        }
                            //        else
                            //        {
                            //            result = _survey.GetQuestion(survey[0].ID, content, phoneNumber, timeOut);
                            //            if (String.IsNullOrEmpty(result))
                            //            {
                            //                result = WebConfigurationManager.AppSettings["NotFound"];
                            //            }
                            //        }
                            //    }
                            //    else
                            //    {
                            //        result = WebConfigurationManager.AppSettings["NotFound"];
                            //    }
                            //}
                            //else
                            //{
                            //    string arrAnswers = "A-B-C-D-1-2-3-4";
                            //    content = parms[1];
                            //    if (content.Length == 1 && arrAnswers.Contains(content))
                            //    {
                            //        result = _survey.GetQuestion(-1, content, phoneNumber, timeOut);
                            //        if (result.Equals("error"))
                            //            result = WebConfigurationManager.AppSettings["ErrorSyntax"];
                            //        else
                            //        {
                            //            if (String.IsNullOrEmpty(result))
                            //            {
                            //                result = WebConfigurationManager.AppSettings["NotFound"];
                            //            }
                            //            else if (result.Contains("SURVEYCOMPLETE"))
                            //            {
                            //                string[] arrResult = result.Split('|');
                            //                float score = 0;
                            //                float.TryParse(arrResult[1], out score);
                            //                if (score > 4) float.TryParse(arrResult[1].Replace(".", ","), out score);
                            //                result = arrResult[2];
                            //            }
                            //        }
                            //    }
                            //    else
                            //    {
                            //        result = WebConfigurationManager.AppSettings["ErrorSyntax"];
                            //    }
                            //}